Time: 27-08-2016 01:50:27 PM
-----------------------------------------------------------
Message: There is no row at position 0.
StackTrace:    at System.Data.RBTree`1.GetNodeByIndex(Int32 userIndex)
   at System.Data.DataRowCollection.get_Item(Int32 index)
   at KochiMetro.KochiWebservices.ManualSignUp(String pname, String emailId, String mobileNo, String udob, String referredUserCode, String signUpType, String imeiNo, String deviceType) in C:\Users\User\Desktop\Code\kochiMetro 27 August 2016\KochiMetro\KochiMetro\kochiWebservices.asmx.cs:line 224
Source: System.Data
TargetSite: NodePath GetNodeByIndex(Int32)
-----------------------------------------------------------

