Time: 04-08-2016 03:48:45 PM
-----------------------------------------------------------
Message: Column 'policeType' does not belong to table .
StackTrace:    at System.Data.DataRow.GetDataColumn(String columnName)
   at System.Data.DataRow.get_Item(String columnName)
   at KochiMetro.KochiWebservices.GlobalSearchResult(String keyword) in C:\Users\User\Desktop\Code\kochiMetro 04 August 2016\KochiMetro\KochiMetro\kochiWebservices.asmx.cs:line 1523
Source: System.Data
TargetSite: System.Data.DataColumn GetDataColumn(System.String)
-----------------------------------------------------------

Time: 04-08-2016 03:50:48 PM
-----------------------------------------------------------
Message: Column 'policeType' does not belong to table .
StackTrace:    at System.Data.DataRow.GetDataColumn(String columnName)
   at System.Data.DataRow.get_Item(String columnName)
   at KochiMetro.KochiWebservices.GlobalSearchResult(String keyword) in C:\Users\User\Desktop\Code\kochiMetro 04 August 2016\KochiMetro\KochiMetro\kochiWebservices.asmx.cs:line 1523
Source: System.Data
TargetSite: System.Data.DataColumn GetDataColumn(System.String)
-----------------------------------------------------------

Time: 04-08-2016 03:54:51 PM
-----------------------------------------------------------
Message: Column 'policeType' does not belong to table .
StackTrace:    at System.Data.DataRow.GetDataColumn(String columnName)
   at System.Data.DataRow.get_Item(String columnName)
   at KochiMetro.KochiWebservices.GlobalSearchResult(String keyword) in C:\Users\User\Desktop\Code\kochiMetro 04 August 2016\KochiMetro\KochiMetro\kochiWebservices.asmx.cs:line 1523
Source: System.Data
TargetSite: System.Data.DataColumn GetDataColumn(System.String)
-----------------------------------------------------------

Time: 04-08-2016 04:00:24 PM
-----------------------------------------------------------
Message: Column 'policeType' does not belong to table .
StackTrace:    at System.Data.DataRow.GetDataColumn(String columnName)
   at System.Data.DataRow.get_Item(String columnName)
   at KochiMetro.KochiWebservices.GlobalSearchResult(String keyword) in C:\Users\User\Desktop\Code\kochiMetro 04 August 2016\KochiMetro\KochiMetro\kochiWebservices.asmx.cs:line 1523
Source: System.Data
TargetSite: System.Data.DataColumn GetDataColumn(System.String)
-----------------------------------------------------------

