Time: 14-09-2016 02:24:29 PM
-----------------------------------------------------------
Result: Success
Web Service Name: getFilterSearch
Data: [{"id":"8","exploreCatId":"6","entryName":"Kochi ","address":"Cochin University of Science and Technology, more","area":"southwest India\u0027s coastal Kerala state","contactNo":"9898987878","otherDescription":"\u003cp\u003e\n\tKochi (also known as Cochin) is a city in southwest India\u0026#39;s coastal Kerala state. It has been a port since 1341, when a flood carved out its harbor and opened it to Arab, Chinese and European merchants. Sites reflecting those influences include Fort Kochi, a settlement with tiled colonial bungalows and diverse houses of worship. Cantilevered Chinese fishing nets, typical of Kochi, have been in use for centuries.\u003c/p\u003e\n\u003cp\u003e\n\t\u003cstrong\u003e\u003ca href=\"https://www.google.co.in/search?biw=1517\u0026amp;bih=692\u0026amp;q=kochi+india+weather\u0026amp;stick=H4sIAAAAAAAAAOMQfsRYyS3w5GKvpFSBkDAXm2NySWZ-nhAnF3t4amJJRmqRUCQXh09-ciJY2FdIkovbrSg1NSmxONU3M0WIi4tDP1ffIC3HqBiom8c1rySzpNKvNDcJqJGZi9FASJpLxDOvJLWooCi1BGwGkiQPAMSKckp-AAAA\u0026amp;sa=X\u0026amp;ved=0ahUKEwjltauj8uDOAhWHMo8KHcWSCzEQ6BMIjwEoADAX\"\u003eWeather\u003c/a\u003e:\u003c/strong\u003e\u0026nbsp;28\u0026deg;C, Wind N at 8 km/h, 79% Humidity\u003c/p\u003e\n\u003cp\u003e\n\t\u003cstrong\u003e\u003ca data-ved=\"0ahUKEwjltauj8uDOAhWHMo8KHcWSCzEQ6BMIkgEoADAY\" href=\"https://www.google.co.in/search?biw=1517\u0026amp;bih=692\u0026amp;q=kochi+india+hotels\u0026amp;sa=X\u0026amp;ved=0ahUKEwjltauj8uDOAhWHMo8KHcWSCzEQ6BMIkgEoADAY\"\u003eHotels\u003c/a\u003e:\u003c/strong\u003e\u0026nbsp;3-star averaging ?\u0026nbsp;2,285, 5-star averaging ?\u0026nbsp;5,572.\u0026nbsp;\u003ca href=\"https://www.google.co.in/search?biw=1517\u0026amp;bih=692\u0026amp;q=kochi+india+hotels\u0026amp;sa=X\u0026amp;ved=0ahUKEwjltauj8uDOAhWHMo8KHcWSCzEQMQiTASgBMBg\"\u003eView hotels\u003c/a\u003e\u003c/p\u003e\n\u003cp\u003e\n\t\u003cstrong\u003e\u003ca data-ved=\"0ahUKEwjltauj8uDOAhWHMo8KHcWSCzEQ6BMIlgEoADAZ\" href=\"https://www.google.co.in/search?biw=1517\u0026amp;bih=692\u0026amp;q=kochi+india+getting+there\u0026amp;sa=X\u0026amp;ved=0ahUKEwjltauj8uDOAhWHMo8KHcWSCzEQ6BMIlgEoADAZ\"\u003eGetting there\u003c/a\u003e:\u003c/strong\u003e\u0026nbsp;1 h 50 min flight, around ?\u0026nbsp;12,265\u0026nbsp;\u003ca href=\"https://www.google.co.in/search?biw=1517\u0026amp;bih=692\u0026amp;q=flights+from+Pune+to+Kochi\u0026amp;sa=X\u0026amp;ved=0ahUKEwjltauj8uDOAhWHMo8KHcWSCzEQMQiXASgBMBk\"\u003eView flights\u003c/a\u003e\u003c/p\u003e\n\u003cp\u003e\n\t\u003cstrong\u003e\u003ca data-ved=\"0ahUKEwjltauj8uDOAhWHMo8KHcWSCzEQ6BMImgEoADAa\" href=\"https://www.google.co.in/search?biw=1517\u0026amp;bih=692\u0026amp;q=kochi+india+local+time\u0026amp;stick=H4sIAAAAAAAAAOPgE-LQz9U3SMsxKtZSyE620s_JT04syczP00_OLKksyS_PswKJ5CiUZOamAgBsgRhbLgAAAA\u0026amp;sa=X\u0026amp;ved=0ahUKEwjltauj8uDOAhWHMo8KHcWSCzEQ6BMImgEoADAa\"\u003eLocal time\u003c/a\u003e:\u003c/strong\u003e\u0026nbsp;Saturday 11:15 AM\u003c/p\u003e\n\u003cp\u003e\n\t\u003cstrong\u003e\u003ca data-ved=\"0ahUKEwjltauj8uDOAhWHMo8KHcWSCzEQ6BMIpAEoADAd\" href=\"https://www.google.co.in/search?biw=1517\u0026amp;bih=692\u0026amp;q=kochi+india+colleges+and+universities\u0026amp;stick=H4sIAAAAAAAAAOPgE-LQz9U3SMsxKtZSyk620s_JT04syczPgzOsSvMyy1KLijNLMlOLAW2nkOowAAAA\u0026amp;sa=X\u0026amp;ved=0ahUKEwjltauj8uDOAhWHMo8KHcWSCzEQ6BMIpAEoADAd\"\u003eColleges and Universities\u003c/a\u003e:\u003c/strong\u003e\u0026nbsp;\u003ca href=\"https://www.google.co.in/search?biw=1517\u0026amp;bih=692\u0026amp;q=CUSAT\u0026amp;stick=H4sIAAAAAAAAAOPgE-LQz9U3SMsxKlbiBLGM4wtzi7WUspOt9HPykxNLMvPz4Ayr0rzMstSi4sySzNRiAFWPWj87AAAA\u0026amp;sa=X\u0026amp;ved=0ahUKEwjltauj8uDOAhWHMo8KHcWSCzEQmxMIpQEoATAd\"\u003eCochin University of Science and Technology\u003c/a\u003e,\u0026nbsp;\u003ca href=\"https://www.google.co.in/search?biw=1517\u0026amp;bih=692\u0026amp;q=kochi+india+colleges+and+universities\u0026amp;stick=H4sIAAAAAAAAAOPgE-LQz9U3SMsxKtZSyk620s_JT04syczPgzOsSvMyy1KLijNLMlOLAW2nkOowAAAA\u0026amp;sa=X\u0026amp;ved=0ahUKEwjltauj8uDOAhWHMo8KHcWSCzEQ44YBCKYBKAIwHQ\"\u003emore\u003c/a\u003e\u003c/p\u003e\n","speciality":"","fuelComapny":"","pType":"","policeType":"","noOfScreens":"","starRating":"","imageName":"assets_tourism.png","displayImage":"IMG-22177_7661jLjjq4.jpg","govtService":"","activityId":"4,5,59,60","distanceFrom":"50-100 km"},{"id":"10","exploreCatId":"6","entryName":"Alappuzha (or Alleppey) ","address":"Laccadive Sea in the southern Indian state of Kerala","area":"Southern Indian state","contactNo":"7676767698","otherDescription":"\u003cp\u003e\n\tAlappuzha (or Alleppey) is a city on the Laccadive Sea in the southern Indian state of Kerala. It\u0026#39;s best known for houseboat cruises along the rustic Kerala backwaters, a network of tranquil canals and lagoons. Alappuzha Beach is the site of the 19th-century Alappuzha Lighthouse. The city\u0026#39;s Mullakkal Temple features a traditional design. Punnamada Lake\u0026#39;s snake boat races are a well-known annual event.\u003c/p\u003e\n\u003cp\u003e\n\t\u0026nbsp;\u003c/p\u003e\n\u003cp\u003e\n\t\u003cstrong\u003e\u003ca href=\"https://www.google.co.in/search?espv=2\u0026amp;biw=1517\u0026amp;bih=692\u0026amp;q=alleppey+india+area\u0026amp;stick=H4sIAAAAAAAAAOPgE-LUz9U3SDKwLKzUkspOttLPyU9OLMnMz4MzrBKLUhMBXNcpnSkAAAA\u0026amp;sa=X\u0026amp;ved=0ahUKEwjP9oq49ODOAhWIpI8KHdDhDfgQ6BMIhQEoADAT\"\u003eArea\u003c/a\u003e:\u003c/strong\u003e\u0026nbsp;46.18\u0026nbsp;km\u0026sup2;\u003c/p\u003e\n\u003cp\u003e\n\t\u003cstrong\u003e\u003ca data-ved=\"0ahUKEwjP9oq49ODOAhWIpI8KHdDhDfgQ6BMIiAEoADAU\" href=\"https://www.google.co.in/search?espv=2\u0026amp;biw=1517\u0026amp;bih=692\u0026amp;q=alleppey+india+elevation\u0026amp;stick=H4sIAAAAAAAAAOPgE-LUz9U3SDKwLKzUks9OttLPyU9OLMnMz4MzrFJzUsvALADXIAmWLgAAAA\u0026amp;sa=X\u0026amp;ved=0ahUKEwjP9oq49ODOAhWIpI8KHdDhDfgQ6BMIiAEoADAU\"\u003eElevation\u003c/a\u003e:\u003c/strong\u003e\u0026nbsp;11\u0026nbsp;m\u003c/p\u003e\n\u003cp\u003e\n\t\u003cstrong\u003e\u003ca data-ved=\"0ahUKEwjP9oq49ODOAhWIpI8KHdDhDfgQ6BMIiwEoADAV\" href=\"https://www.google.co.in/search?espv=2\u0026amp;biw=1517\u0026amp;bih=692\u0026amp;q=alleppey+india+weather\u0026amp;stick=H4sIAAAAAAAAAOMQfsRYxS3w5GKvpFShkDAXm2NySWZ-nhAnF3t4amJJRmqRUBQXh09-ciJY2E9IiovbrSg1NSmxONU3M0WIm4tTP1ffIMnAsrASqJ3HNa8ks6TSrzQ3CaiTmYvRQEiaS8QzryS1qKAotQRsCJIkDwD8h7_MfwAAAA\u0026amp;sa=X\u0026amp;ved=0ahUKEwjP9oq49ODOAhWIpI8KHdDhDfgQ6BMIiwEoADAV\"\u003eWeather\u003c/a\u003e:\u003c/strong\u003e\u0026nbsp;27\u0026deg;C, Wind NW at 13 km/h, 79% Humidity\u003c/p\u003e\n\u003cp\u003e\n\t\u003cstrong\u003e\u003ca data-ved=\"0ahUKEwjP9oq49ODOAhWIpI8KHdDhDfgQ6BMIjgEoADAW\" href=\"https://www.google.co.in/search?espv=2\u0026amp;biw=1517\u0026amp;bih=692\u0026amp;q=alleppey+india+hotels\u0026amp;sa=X\u0026amp;ved=0ahUKEwjP9oq49ODOAhWIpI8KHdDhDfgQ6BMIjgEoADAW\"\u003eHotels\u003c/a\u003e:\u003c/strong\u003e\u0026nbsp;3-star averaging ?\u0026nbsp;2,551, 5-star averaging ?\u0026nbsp;4,089.\u0026nbsp;\u003ca href=\"https://www.google.co.in/search?espv=2\u0026amp;biw=1517\u0026amp;bih=692\u0026amp;q=alleppey+india+hotels\u0026amp;sa=X\u0026amp;ved=0ahUKEwjP9oq49ODOAhWIpI8KHdDhDfgQMQiPASgBMBY\"\u003eView hotels\u003c/a\u003e\u003c/p\u003e\n\u003cp\u003e\n\t\u003cstrong\u003e\u003ca data-ved=\"0ahUKEwjP9oq49ODOAhWIpI8KHdDhDfgQ6BMIkgEoADAX\" href=\"https://www.google.co.in/search?espv=2\u0026amp;biw=1517\u0026amp;bih=692\u0026amp;q=alleppey+india+population\u0026amp;stick=H4sIAAAAAAAAAOPgE-LUz9U3SDKwLKzU0spOttLPyU9OLMnMz9MvLgHSxSWZyYk58UWp6UAhq4L8gtIcsCwA9rwanzkAAAA\u0026amp;sa=X\u0026amp;ved=0ahUKEwjP9oq49ODOAhWIpI8KHdDhDfgQ6BMIkgEoADAX\"\u003ePopulation\u003c/a\u003e:\u003c/strong\u003e\u0026nbsp;177,029 (2001)\u0026nbsp;\u003ca href=\"http://data.un.org/Data.aspx?d=POP\u0026amp;f=tableCode%3A240\"\u003eUNdata\u003c/a\u003e\u003c/p\u003e\n\u003cp\u003e\n\t\u003cstrong\u003e\u003ca data-ved=\"0ahUKEwjP9oq49ODOAhWIpI8KHdDhDfgQ6BMIlgEoADAY\" href=\"https://www.google.co.in/search?espv=2\u0026amp;biw=1517\u0026amp;bih=692\u0026amp;q=alleppey+india+local+time\u0026amp;stick=H4sIAAAAAAAAAOPgE-LUz9U3SDKwLKzUUshOttLPyU9OLMnMz9NPziypLMkvz7MCieQolGTmpgIAGXNtDi8AAAA\u0026amp;sa=X\u0026amp;ved=0ahUKEwjP9oq49ODOAhWIpI8KHdDhDfgQ6BMIlgEoADAY\"\u003eLocal time\u003c/a\u003e:\u003c/strong\u003e\u0026nbsp;Saturday 11:25 AM\u003c/p\u003e\n","speciality":"","fuelComapny":"","pType":"","policeType":"","noOfScreens":"","starRating":"","imageName":"assets_tourism.png","displayImage":"IMG3pvxLzt.jpg","govtService":"","activityId":"58","distanceFrom":"50-100 km"},{"id":"11","exploreCatId":"6","entryName":"Kovalam","address":"At the southern end of Lighthouse Beach is a striped lighthouse ","area":"South Indian state of Kerala","contactNo":"5656766676","otherDescription":"\u003cp\u003e\n\tKovalam is a small coastal town in the southern Indian state of Kerala, south of Thiruvananthapuram. At the southern end of Lighthouse Beach is a striped lighthouse with a viewing platform. Palm-backed beaches also include Hawa Beach and Samudra Beach. Heading south, Vizhinjam Juma Masjid mosque overlooks the busy fishing harbor. Inland, Sagarika Marine Research Aquarium displays technology used in pearl production.\u003c/p\u003e\n\u003cp\u003e\n\t\u003cstrong\u003e\u003ca href=\"https://www.google.co.in/search?biw=1517\u0026amp;bih=692\u0026amp;q=kovalam+india+hotels\u0026amp;sa=X\u0026amp;ved=0ahUKEwjs-K2n-uDOAhUJso8KHRN7BCwQ6BMIjQEoADAV\"\u003eHotels\u003c/a\u003e:\u003c/strong\u003e\u0026nbsp;3-star averaging ?\u0026nbsp;1,785, 5-star averaging ?\u0026nbsp;8,595.\u0026nbsp;\u003ca href=\"https://www.google.co.in/search?biw=1517\u0026amp;bih=692\u0026amp;q=kovalam+india+hotels\u0026amp;sa=X\u0026amp;ved=0ahUKEwjs-K2n-uDOAhUJso8KHRN7BCwQMQiOASgBMBU\"\u003eView hotels\u003c/a\u003e\u003c/p\u003e\n\u003cp\u003e\n\t\u003cstrong\u003e\u003ca data-ved=\"0ahUKEwjs-K2n-uDOAhUJso8KHRN7BCwQ6BMIkQEoADAW\" href=\"https://www.google.co.in/search?biw=1517\u0026amp;bih=692\u0026amp;q=kovalam+india+getting+there\u0026amp;sa=X\u0026amp;ved=0ahUKEwjs-K2n-uDOAhUJso8KHRN7BCwQ6BMIkQEoADAW\"\u003eGetting there\u003c/a\u003e:\u003c/strong\u003e\u0026nbsp;3 h 15 min flight, around ?\u0026nbsp;12,320.\u0026nbsp;\u003ca href=\"https://www.google.co.in/search?biw=1517\u0026amp;bih=692\u0026amp;q=flights+from+Pune+to+Thiruvananthapuram\u0026amp;sa=X\u0026amp;ved=0ahUKEwjs-K2n-uDOAhUJso8KHRN7BCwQMQiSASgBMBY\"\u003eView flights\u003c/a\u003e\u003c/p\u003e\n\u003cp\u003e\n\t\u003cstrong\u003e\u003ca data-ved=\"0ahUKEwjs-K2n-uDOAhUJso8KHRN7BCwQ6BMIlQEoADAX\" href=\"https://www.google.co.in/search?biw=1517\u0026amp;bih=692\u0026amp;q=kovalam+india+weather\u0026amp;stick=H4sIAAAAAAAAAOMQfsRYxS3w5GKvpFShkDAXm2NySWZ-nhAnF3t4amJJRmqRUBQXh09-ciJY2E9IiovbrSg1NSmxONU3M0WIm4tTP1ffwLCqMt0QqJ3HNa8ks6TSrzQ3CaiTmYvRQEiaS8QzryS1qKAotQRsCJIkDwAxMPPnfwAAAA\u0026amp;sa=X\u0026amp;ved=0ahUKEwjs-K2n-uDOAhUJso8KHRN7BCwQ6BMIlQEoADAX\"\u003eWeather\u003c/a\u003e:\u003c/strong\u003e\u0026nbsp;29\u0026deg;C, Wind W at 13 km/h, 74% Humidity\u003c/p\u003e\n\u003cp\u003e\n\t\u003cstrong\u003e\u003ca data-ved=\"0ahUKEwjs-K2n-uDOAhUJso8KHRN7BCwQ6BMImAEoADAY\" href=\"https://www.google.co.in/search?biw=1517\u0026amp;bih=692\u0026amp;q=kovalam+india+local+time\u0026amp;stick=H4sIAAAAAAAAAOPgE-LUz9U3MKyqTDfUUshOttLPyU9OLMnMz9NPziypLMkvz7MCieQolGTmpgIAtesfuS8AAAA\u0026amp;sa=X\u0026amp;ved=0ahUKEwjs-K2n-uDOAhUJso8KHRN7BCwQ6BMImAEoADAY\"\u003eLocal time\u003c/a\u003e:\u003c/strong\u003e\u0026nbsp;Saturday 11:51 AM\u003c/p\u003e\n","speciality":"","fuelComapny":"","pType":"","policeType":"","noOfScreens":"","starRating":"","imageName":"assets_tourism.png","displayImage":"IMG7haUe45.jpg","govtService":"","activityId":"4,58,60","distanceFrom":"50-100 km"}]
-----------------------------------------------------------

