Time: 17-06-2016 12:51:18 PM
-----------------------------------------------------------
Result: Success
Web Service Name: SignUp
Data: [{"userID":"41"}]
-----------------------------------------------------------

