Time: 15-06-2016 05:28:51 PM
-----------------------------------------------------------
Result: Success
Web Service Name: SignUp
Data: [{"userID":"21"}]
-----------------------------------------------------------

