Time: 16-06-2016 11:45:45 AM
-----------------------------------------------------------
Result: Success
Web Service Name: SignUp
Data: [{"userID":"22"}]
-----------------------------------------------------------

Time: 16-06-2016 11:45:52 AM
-----------------------------------------------------------
Result: Success
Web Service Name: SignUp
Data: [{"userID":"23"}]
-----------------------------------------------------------

Time: 16-06-2016 11:46:01 AM
-----------------------------------------------------------
Result: Success
Web Service Name: SignUp
Data: [{"userID":"24"}]
-----------------------------------------------------------

Time: 16-06-2016 11:46:10 AM
-----------------------------------------------------------
Result: Success
Web Service Name: SignUp
Data: [{"userID":"25"}]
-----------------------------------------------------------

Time: 16-06-2016 11:46:22 AM
-----------------------------------------------------------
Result: Success
Web Service Name: SignUp
Data: [{"userID":"Mobile number already registered !!"}]
-----------------------------------------------------------

Time: 16-06-2016 11:46:31 AM
-----------------------------------------------------------
Result: Success
Web Service Name: SignUp
Data: [{"userID":"Mobile number already registered !!"}]
-----------------------------------------------------------

Time: 16-06-2016 11:50:05 AM
-----------------------------------------------------------
Result: Success
Web Service Name: SignUp
Data: [{"userID":"Mobile number already registered !!;25"}]
-----------------------------------------------------------

Time: 16-06-2016 04:37:25 PM
-----------------------------------------------------------
Result: Success
Web Service Name: SignUp
Data: [{"userID":"A network-related or instance-specific error occurred while establishing a connection to SQL Server. The server was not found or was not accessible. Verify that the instance name is correct and that SQL Server is configured to allow remote connections. (provider: Named Pipes Provider, error: 40 - Could not open a connection to SQL Server)"}]
-----------------------------------------------------------

Time: 16-06-2016 05:56:46 PM
-----------------------------------------------------------
Result: Success
Web Service Name: SignUp
Data: [{"userID":"28"}]
-----------------------------------------------------------

Time: 16-06-2016 06:00:44 PM
-----------------------------------------------------------
Result: Success
Web Service Name: SignUp
Data: [{"userID":"29"}]
-----------------------------------------------------------

Time: 16-06-2016 06:02:51 PM
-----------------------------------------------------------
Result: Success
Web Service Name: SignUp
Data: [{"userID":"30"}]
-----------------------------------------------------------

Time: 16-06-2016 06:06:16 PM
-----------------------------------------------------------
Result: Success
Web Service Name: SignUp
Data: [{"userID":"31"}]
-----------------------------------------------------------

Time: 16-06-2016 06:08:30 PM
-----------------------------------------------------------
Result: Success
Web Service Name: SignUp
Data: [{"userID":"32"}]
-----------------------------------------------------------

