Time: 05-07-2016 11:00:41 AM
-----------------------------------------------------------
Result: Success
Web Service Name: GetSosDetails
Data: [{"exploreCatId":"1","category":"Healthcare","imageName":"placeholder.png"},{"exploreCatId":"2","category":"Government Office","imageName":"placeholder.png"},{"exploreCatId":"3","category":"Emission Testing","imageName":"placeholder.png"},{"exploreCatId":"4","category":"Parking Station","imageName":"placeholder.png"},{"exploreCatId":"5","category":"Police Station","imageName":"placeholder.png"},{"exploreCatId":"6","category":"Tourism","imageName":"placeholder.png"},{"exploreCatId":"7","category":"Cinema Hall","imageName":"placeholder.png"},{"exploreCatId":"8","category":"Hotels","imageName":"placeholder.png"},{"exploreCatId":"9","category":"Fuel Point","imageName":"placeholder.png"}]
-----------------------------------------------------------

Time: 05-07-2016 11:20:22 AM
-----------------------------------------------------------
Result: Success
Web Service Name: GetServiceSubCategories
Data: [{"id":1,"exploreCatId":1,"category":"Healthcare","entryName":"Tata Memorial Hospital","address":"S. B. Road","area":"Near Pantaloons ","contactNo":"9028341234","otherDescription":"\u003cp\u003e\u0026lt;table class=\u0026quot;explore-listing\u0026quot; width=\u0026quot;100%\u0026quot; border=\u0026quot;0\u0026quot;\u0026gt;     \u0026lt;tbody\u0026gt;         \u0026lt;tr valign=\u0026quot;top\u0026quot;\u0026gt;             \u0026lt;th bgcolor=\u0026quot;#aaa\u0026quot; width=\u0026quot;6%\u0026quot;\u0026gt;Sr. No.\u0026lt;/th\u0026gt;             \u0026lt;th bgcolor=\u0026quot;#b5dcb3\u0026quot; width=\u0026quot;20%\u0026quot;\u0026gt;Category\u0026lt;/th\u0026gt;             \u0026lt;th bgcolor=\u0026quot;#aaa\u0026quot; width=\u0026quot;24%\u0026quot;\u0026gt;Name of Entry\u0026lt;/th\u0026gt;             \u0026lt;th bgcolor=\u0026quot;#aaa\u0026quot; width=\u0026quot;15%\u0026quot;\u0026gt;Dat","insertedBy":1,"status":"Pending","longitude":null,"latitude":null,"insertDate1":"24/06/2016","insertDate":"\/Date(1466770342900)\/","cmdArg":"1;1;Healthcare;/admin/hospital.aspx","name":"Kalyani","isActive":true}]
-----------------------------------------------------------

Time: 05-07-2016 11:56:42 AM
-----------------------------------------------------------
Result: Success
Web Service Name: GetServiceSubCategories
Data: [{"id":1,"exploreCatId":1,"category":"Healthcare","entryName":"Tata Memorial Hospital","address":"S. B. Road","area":"Near Pantaloons ","contactNo":"9028341234","otherDescription":"\u003cp\u003e\u0026lt;table class=\u0026quot;explore-listing\u0026quot; width=\u0026quot;100%\u0026quot; border=\u0026quot;0\u0026quot;\u0026gt;     \u0026lt;tbody\u0026gt;         \u0026lt;tr valign=\u0026quot;top\u0026quot;\u0026gt;             \u0026lt;th bgcolor=\u0026quot;#aaa\u0026quot; width=\u0026quot;6%\u0026quot;\u0026gt;Sr. No.\u0026lt;/th\u0026gt;             \u0026lt;th bgcolor=\u0026quot;#b5dcb3\u0026quot; width=\u0026quot;20%\u0026quot;\u0026gt;Category\u0026lt;/th\u0026gt;             \u0026lt;th bgcolor=\u0026quot;#aaa\u0026quot; width=\u0026quot;24%\u0026quot;\u0026gt;Name of Entry\u0026lt;/th\u0026gt;             \u0026lt;th bgcolor=\u0026quot;#aaa\u0026quot; width=\u0026quot;15%\u0026quot;\u0026gt;Dat","insertedBy":1,"status":"Pending","longitude":null,"latitude":null,"insertDate1":"24/06/2016","insertDate":"\/Date(1466770342900)\/","cmdArg":"1;1;Healthcare;/admin/hospital.aspx","name":"Kalyani","isActive":true}]
-----------------------------------------------------------

Time: 05-07-2016 03:31:14 PM
-----------------------------------------------------------
Result: Success
Web Service Name: GetServiceSubCategories
Data: [{"id":"1","entryName":"Tata Memorial Hospital","address":"S. B. Road","area":"Near Pantaloons ","contactNo":"9028341234","otherDescription":"\u003cp\u003e\u0026lt;table class=\u0026quot;explore-listing\u0026quot; width=\u0026quot;100%\u0026quot; border=\u0026quot;0\u0026quot;\u0026gt;     \u0026lt;tbody\u0026gt;         \u0026lt;tr valign=\u0026quot;top\u0026quot;\u0026gt;             \u0026lt;th bgcolor=\u0026quot;#aaa\u0026quot; width=\u0026quot;6%\u0026quot;\u0026gt;Sr. No.\u0026lt;/th\u0026gt;             \u0026lt;th bgcolor=\u0026quot;#b5dcb3\u0026quot; width=\u0026quot;20%\u0026quot;\u0026gt;Category\u0026lt;/th\u0026gt;             \u0026lt;th bgcolor=\u0026quot;#aaa\u0026quot; width=\u0026quot;24%\u0026quot;\u0026gt;Name of Entry\u0026lt;/th\u0026gt;             \u0026lt;th bgcolor=\u0026quot;#aaa\u0026quot; width=\u0026quot;15%\u0026quot;\u0026gt;Dat","speciality":"Gastrointestinal","fuelComapny":" ","pType":" ","noOfScreens":" ","starRating":" "}]
-----------------------------------------------------------

